%YAML 1.1
%TAG !u! tag:unity3d.com,2011:
--- !u!114 &11400000
MonoBehaviour:
  m_ObjectHideFlags: 0
  m_PrefabParentObject: {fileID: 0}
  m_PrefabInternal: {fileID: 0}
  m_GameObject: {fileID: 0}
  m_Enabled: 1
  m_EditorHideFlags: 0
  m_Script: {fileID: 11500000, guid: 12c9b889669b39948a111ecafa9f97d2, type: 3}
  m_Name: AIAttackData_HeadButt
  m_EditorClassIdentifier: 
  jumpHeightMax: {x: 0, y: 3.75, z: 0}
  attackRange: 1
  attackCooldown: 1
