%YAML 1.1
%TAG !u! tag:unity3d.com,2011:
--- !u!114 &11400000
MonoBehaviour:
  m_ObjectHideFlags: 0
  m_PrefabParentObject: {fileID: 0}
  m_PrefabInternal: {fileID: 0}
  m_GameObject: {fileID: 0}
  m_Enabled: 1
  m_EditorHideFlags: 0
  m_Script: {fileID: 11500000, guid: 2d164357dd528a741b55b8420780004d, type: 3}
  m_Name: DashAttackData
  m_EditorClassIdentifier: 
  attackCooldown: 1
  attackDelay: 0.1
  preventXVelocity: 1
  preventYVelocity: 1
  attackDuration: 1
  attackForce: {x: 30, y: 1}
  hurtBoxes:
  - {fileID: 11400000, guid: da16e002245d5854a9aa801461bf7801, type: 2}
  - {fileID: 11400000, guid: d0009e0dab98f6e45a804e62d27b8d0e, type: 2}
