%YAML 1.1
%TAG !u! tag:unity3d.com,2011:
--- !u!114 &11400000
MonoBehaviour:
  m_ObjectHideFlags: 0
  m_PrefabParentObject: {fileID: 0}
  m_PrefabInternal: {fileID: 0}
  m_GameObject: {fileID: 0}
  m_Enabled: 1
  m_EditorHideFlags: 0
  m_Script: {fileID: 11500000, guid: 56d99d0cecd49cc4194b84a3637f1714, type: 3}
  m_Name: DashingHurtBoxDash
  m_EditorClassIdentifier: 
  offset: {x: 1, y: 1, z: 0}
  size: {x: 1, y: 2, z: 0}
  damage: 2
  knockBack: {x: 10, y: 10}
  hurtBoxDuration:
    rangeStart: 0
    rangeEnd: 0.8
