%YAML 1.1
%TAG !u! tag:unity3d.com,2011:
--- !u!114 &11400000
MonoBehaviour:
  m_ObjectHideFlags: 0
  m_PrefabParentObject: {fileID: 0}
  m_PrefabInternal: {fileID: 0}
  m_GameObject: {fileID: 0}
  m_Enabled: 1
  m_EditorHideFlags: 0
  m_Script: {fileID: 11500000, guid: 7ca3d682f802d4146abe4b9cc1369975, type: 3}
  m_Name: BomberMovement
  m_EditorClassIdentifier: 
  moveSpeed: 6
  airborneAccelerationTime: 0.2
  groundedAccelerationTime: 0.1
  canJump: 1
  maxJumpHeight: 4
  minJumpHeight: 1
  timeToJumpApex: 0.4
  fallMultiplier: 0.5
  lowJumpMultiplier: 0.2
  gravity: -49.999996
