%YAML 1.1
%TAG !u! tag:unity3d.com,2011:
--- !u!114 &11400000
MonoBehaviour:
  m_ObjectHideFlags: 0
  m_PrefabParentObject: {fileID: 0}
  m_PrefabInternal: {fileID: 0}
  m_GameObject: {fileID: 0}
  m_Enabled: 1
  m_EditorHideFlags: 0
  m_Script: {fileID: 11500000, guid: a792463e7315fbb48a2945d5716c7733, type: 3}
  m_Name: Scenes
  m_EditorClassIdentifier: 
  ScenesInBuildSettings:
  - Index
  - LoadScreen
  - Menus
  - CurrentBuildScene
  - Enviroment 1
  - AI Plaza
  IndexScene:
    ElementName: 
    SceneName: 
    BuildIndex: 0
  MenuScene:
    ElementName: Menus
    SceneName: Menus
    BuildIndex: 2
  LoadingScene:
    ElementName: LoadScreen
    SceneName: LoadScreen
    BuildIndex: 1
  GameScene_Current:
    ElementName: CurrentBuildScene
    SceneName: CurrentBuildScene
    BuildIndex: 2
  GameplayScenes:
  - ElementName: 0. AI Plaza
    SceneName: AI Plaza
    BuildIndex: 5
  - ElementName: 1. Enviroment 1
    SceneName: Enviroment 1
    BuildIndex: 4
