# Blender v2.79 (sub 0) OBJ File: 'PassthroughSteepSlope.blend'
# www.blender.org
mtllib PassthroughSteepSlope.mtl
o Steep_Stope_Cube
v 1.499999 2.000000 -0.500000
v 0.082259 0.930804 -0.500000
v -1.500000 0.000001 -0.499382
v -1.500000 0.000000 -0.500618
v 1.500000 1.999999 0.500000
v 0.082258 0.930804 0.500000
v -1.500000 -0.000001 0.500000
v -1.499999 0.000000 0.500000
vn 0.0049 -0.0076 -1.0000
vn 0.0000 -0.0000 1.0000
vn 0.6021 -0.7984 -0.0000
vn 0.5070 -0.8619 -0.0000
vn -0.9397 0.3420 0.0000
vn -0.5547 0.8321 0.0000
usemtl Material
s off
f 1//1 2//1 3//1 4//1
f 5//2 8//2 7//2 6//2
f 1//3 5//3 6//3 2//3
f 2//4 6//4 7//4 3//4
f 3//5 7//5 8//5 4//5
f 5//6 1//6 4//6 8//6
